{
  "alias": "aggregate_bars",
  "name": "Aggregate Bars",
  "descriptor": {
    "type": "timeseries",
    "sizeX": 8,
    "sizeY": 5,
    "resources": [
      {
        "url": "https://cdn.jsdelivr.net/npm/chart.js@2.9.3/dist/Chart.min.js"
      }
    ],
    "templateHtml": "<canvas id=\"barChart\"></canvas>\n",
    "templateCss": ".legend {\n    font-size: 13px;\n    line-height: 10px;\n}\n\n.legend table { \n    border-spacing: 0px;\n    border-collapse: separate;\n}\n\n.mouse-events .flot-overlay {\n    cursor: crosshair; \n}\n\n",
    "controllerScript": "self.onInit = function() {\n    var barData = {\n        labels: [],\n        datasets: []\n    };\n    \n    // Get settings\n    var displayLegend = self.ctx.settings.displayLegend;\n    var yAxesTitle = self.ctx.settings.yAxesTitle;\n    var chartTitle = self.ctx.settings.chartTitle;\n    var aggFunction = self.ctx.settings.aggFunction || 'Average';\n    var legendPosition = self.ctx.settings.legendPosition || 'hidden';\n    \n    // Build Chart title\n    chartTitle = !!chartTitle \n        ? `${chartTitle} (${aggFunction} values)`\n        : `${aggFunction} values`;\n    \n    \n    \n    // Set Agg function\n    switch (aggFunction) {\n        case 'Sum':\n            self.aggFunction = sum;\n            break;\n        case 'Max':\n            self.aggFunction = max;\n            break;\n        case 'Min':\n            self.aggFunction = min;\n            break;\n        case 'Average':\n            self.aggFunction = avg;\n            break;\n        default:\n            self.aggFunction = avg;\n            break;\n    }\n    \n    // Set Agg function\n    var _displayLegend = true;\n    var _legendPosition = legendPosition.toLowerCase();\n    if (_legendPosition === 'hidden') {\n        _displayLegend = false;\n    }\n    \n    for (var i = 0; i < self.ctx.datasources.length; i++) {\n        var datasource = self.ctx.datasources[i];\n        var data = self.ctx.data[i];\n        for (var d = 0; d < datasource.dataKeys.length; d++) {\n            var dataKey = datasource.dataKeys[d];\n            var dataset = {\n                label: dataKey.label,\n                data: [0],\n                backgroundColor: [dataKey.color],\n                borderColor: [dataKey.color],\n                borderWidth: 1\n            }\n            barData.datasets.push(dataset);\n        }\n    }\n\n    var ctx = $('#barChart', self.ctx.$container);\n    self.ctx.chart = new Chart(ctx, {\n        type: 'bar',\n        data: barData,\n        options: {\n            title: {\n                display: !!chartTitle ? true : false,\n                text: chartTitle\n            },\n            responsive: true,\n            maintainAspectRatio: false,\n            scales: {\n                yAxes: [{\n                    ticks: {\n                        beginAtZero:true\n                    },\n                    scaleLabel: {\n                        display: !!yAxesTitle ? true : false,\n                        labelString: yAxesTitle\n                    }\n                }]\n            },\n            legend: {\n                display: _displayLegend,\n                position: _legendPosition,\n                align: \"start\",\n                labels: {\n                    boxWidth: 12\n                }\n            },\n            tooltips: {\n                enabled: true,\n            }\n        }\n    });\n    \n    self.onResize();\n    self.isSet = false;\n}\n\nself.onDataUpdated = function() {\n    for (var i = 0; i < self.ctx.chart.data.datasets.length; i++) {\n        var dataset = self.ctx.chart.data.datasets[i];\n        var cellData = self.ctx.data[i]; \n        if (cellData.data.length > 0) {\n            var value = self.calculateAggregate(cellData.data, self.aggFunction);\n            dataset.data[0] = parseFloat(value);\n        }\n    }\n    self.ctx.chart.update();\n}\n\nself.onResize = function() {\n    self.ctx.chart.resize();\n}\n\nclass OperableArray extends Array {\n    sum(key) {\n        return this.reduce((a, b) => a + (b[key] || 0), 0);\n    }\n    max(key) {\n        return Math.max.apply(Math, this.map(x => x[key]));\n    }\n    min(key) {\n        return Math.min.apply(Math, this.map(x => x[key]));\n    }\n}\n\nsum = function(data) {\n    const operableData = new OperableArray(...data);\n    return operableData.sum(1);\n}\nmax = function(data) {\n    const operableData = new OperableArray(...data);\n    return operableData.max(1);\n}\nmin = function(data) {\n    const operableData = new OperableArray(...data);\n    return operableData.min(1);\n}\navg = function(data) {\n    const operableData = new OperableArray(...data);\n    return operableData.sum(1)/data.length;\n}\n\nself.calculateAggregate = function(data, func) {\n    return func(data);\n}\n\n",
    "settingsSchema": "{\n    \"schema\": {\n        \"type\": \"object\",\n        \"title\": \"Settings\",\n        \"required\": [\"aggFunction\"],\n        \"properties\": {\n            \"chartTitle\": {\n                \"title\": \"Chart title\",\n                \"type\": \"string\"\n            },\n            \"legendPosition\": {\n                \"title\": \"Legend position\",\n                \"type\": \"string\",\n                \"enum\": [\n                    \"Hidden\",\n                    \"Top\",\n                    \"Bottom\",\n                    \"Left\",\n                    \"Right\"\n                ]\n            },\n            \"yAxesTitle\": {\n                \"title\": \"Y axes title\",\n                \"type\": \"string\"\n            },\n            \"aggFunction\": {\n                \"title\": \"Aggregation function\",\n                \"type\": \"string\",\n                \"enum\": [\n                    \"Average\",\n                    \"Sum\",\n                    \"Min\",\n                    \"Max\"\n                ]\n            }\n        }\n    },\n    \"form\": [\n        \"chartTitle\",\n        \"legendPosition\",\n        \"yAxesTitle\",\n        \"aggFunction\"\n    ]\n}",
    "dataKeySettingsSchema": "{}",
    "defaultConfig": "{\"datasources\":[{\"type\":\"function\",\"name\":\"function\",\"dataKeys\":[{\"name\":\"f(x)\",\"type\":\"function\",\"label\":\"First\",\"color\":\"#2196f3\",\"settings\":{\"showLines\":true,\"fillLines\":true,\"showPoints\":false},\"_hash\":0.8587686344902596,\"funcBody\":\"var value = prevValue + Math.random() * 100 - 50;\\nvar multiplier = Math.pow(10, 2 || 0);\\nvar value = Math.round(value * multiplier) / multiplier;\\nif (value < -1000) {\\n\\tvalue = -1000;\\n} else if (value > 1000) {\\n\\tvalue = 1000;\\n}\\nreturn value;\"},{\"name\":\"f(x)\",\"type\":\"function\",\"label\":\"Second\",\"color\":\"#ffc107\",\"settings\":{\"showLines\":true,\"fillLines\":false,\"showPoints\":false},\"_hash\":0.12775350966079668,\"funcBody\":\"var value = prevValue + Math.random() * 100 - 50;\\nvar multiplier = Math.pow(10, 2 || 0);\\nvar value = Math.round(value * multiplier) / multiplier;\\nif (value < -1000) {\\n\\tvalue = -1000;\\n} else if (value > 1000) {\\n\\tvalue = 1000;\\n}\\nreturn value;\"}]}],\"timewindow\":{\"realtime\":{\"timewindowMs\":60000}},\"showTitle\":true,\"backgroundColor\":\"#fff\",\"color\":\"rgba(0, 0, 0, 0.87)\",\"padding\":\"8px\",\"settings\":{\"shadowSize\":4,\"fontColor\":\"#545454\",\"fontSize\":10,\"xaxis\":{\"showLabels\":true,\"color\":\"#545454\"},\"yaxis\":{\"showLabels\":true,\"color\":\"#545454\"},\"grid\":{\"color\":\"#545454\",\"tickColor\":\"#DDDDDD\",\"verticalLines\":true,\"horizontalLines\":true,\"outlineWidth\":1},\"legend\":{\"show\":true,\"position\":\"nw\",\"backgroundColor\":\"#f0f0f0\",\"backgroundOpacity\":0.85,\"labelBoxBorderColor\":\"rgba(1, 1, 1, 0.45)\"},\"decimals\":1,\"stack\":false,\"tooltipIndividual\":false},\"title\":\"Aggregate Bars\",\"dropShadow\":true,\"enableFullscreen\":true,\"titleStyle\":{\"fontSize\":\"16px\",\"fontWeight\":400},\"mobileHeight\":null}"
  }
}