{
  "alias": "custom_bars",
  "name": "Custom Bars",
  "descriptor": {
    "type": "latest",
    "sizeX": 7,
    "sizeY": 5,
    "resources": [
      {
        "url": "https://cdnjs.cloudflare.com/ajax/libs/Chart.js/2.3.0/Chart.min.js"
      }
    ],
    "templateHtml": "<canvas id=\"barChart\"></canvas>\n",
    "templateCss": "",
    "controllerScript": "self.onInit = function() {\n    var barData = {\n        labels: [],\n        datasets: []\n    };\n    \n    // Get settings\n    let chartTitle = self.ctx.settings.chartTitle;\n    let displayLegend = self.ctx.settings.displayLegend;\n    let yAxesTitle = self.ctx.settings.yAxesTitle;\n    \n    for (var i = 0; i < self.ctx.datasources.length; i++) {\n        var datasource = self.ctx.datasources[i];\n        for (var d = 0; d < datasource.dataKeys.length; d++) {\n            var dataset = {\n                label: datasource.dataKeys[d].label,\n                data: [0],\n                backgroundColor: [datasource.dataKeys[d].color],\n                borderColor: [datasource.dataKeys[d].color],\n                borderWidth: 1\n            }\n            barData.datasets.push(dataset);\n        }\n    }\n\n    var ctx = $('#barChart', self.ctx.$container);\n    self.ctx.chart = new Chart(ctx, {\n        type: 'bar',\n        data: barData,\n        options: {\n            title: {\n                display: !!chartTitle ? true : false,\n                text: chartTitle\n            },\n            responsive: false,\n            maintainAspectRatio: false,\n            scales: {\n                yAxes: [{\n                    ticks: {\n                        beginAtZero:true\n                    },\n                    scaleLabel: {\n                        display: !!yAxesTitle ? true : false,\n                        labelString: yAxesTitle\n                    }\n                }]\n            },\n            legend: {\n                display: displayLegend,\n                fontSize: 12\n            }\n        }\n    });\n    \n    self.onResize();\n}\n\nself.onDataUpdated = function() {\n    var c = 0;\n    for (var i = 0; i < self.ctx.chart.data.datasets.length; i++) {\n        var dataset = self.ctx.chart.data.datasets[i];\n        var cellData = self.ctx.data[i]; \n        if (cellData.data.length > 0) {\n             var tvPair = cellData.data[cellData.data.length - 1];\n             var value = tvPair[1];\n             dataset.data[0] = parseFloat(value);\n        }\n    }\n    self.ctx.chart.update();\n}\n\nself.onResize = function() {\n    self.ctx.chart.resize();\n}\n\n",
    "settingsSchema": "{\n    \"schema\": {\n        \"type\": \"object\",\n        \"title\": \"Settings\",\n        \"required\": [],\n        \"properties\": {\n            \"chartTitle\": {\n                \"title\": \"Chart title\",\n                \"type\": \"string\"\n            },\n            \"displayLegend\": {\n                \"title\": \"Display legend on top\",\n                \"type\": \"boolean\"\n            },\n            \"yAxesTitle\": {\n                \"title\": \"Y axes title\",\n                \"type\": \"string\"\n            }\n        }\n    },\n    \"form\": [\n        \"chartTitle\",\n        \"displayLegend\",\n        \"yAxesTitle\"\n    ]\n}",
    "dataKeySettingsSchema": "{}\n",
    "defaultConfig": "{\"datasources\":[{\"type\":\"function\",\"name\":\"function\",\"dataKeys\":[{\"name\":\"f(x)\",\"type\":\"function\",\"label\":\"First\",\"color\":\"#2196f3\",\"settings\":{},\"_hash\":0.15479322438769105,\"funcBody\":\"var value = (prevValue-50) + Math.random() * 2 - 1;\\nif (value < 0) {\\n\\tvalue = 0;\\n} else if (value > 100) {\\n\\tvalue = 100;\\n}\\nreturn value+50;\"},{\"name\":\"f(x)\",\"type\":\"function\",\"label\":\"Second\",\"color\":\"#4caf50\",\"settings\":{},\"_hash\":0.545701115289893,\"funcBody\":\"var value = (prevValue-20) + Math.random() * 2 - 1;\\nif (value < 0) {\\n\\tvalue = 0;\\n} else if (value > 100) {\\n\\tvalue = 100;\\n}\\nreturn value+20;\"},{\"name\":\"f(x)\",\"type\":\"function\",\"label\":\"Third\",\"color\":\"#f44336\",\"settings\":{},\"_hash\":0.2592906835158064,\"funcBody\":\"var value = (prevValue-40) + Math.random() * 2 - 1;\\nif (value < 0) {\\n\\tvalue = 0;\\n} else if (value > 100) {\\n\\tvalue = 100;\\n}\\nreturn value+40;\"},{\"name\":\"f(x)\",\"type\":\"function\",\"label\":\"Fourth\",\"color\":\"#ffc107\",\"settings\":{},\"_hash\":0.12880275585455747,\"funcBody\":\"var value = (prevValue-50) + Math.random() * 2 - 1;\\nif (value < 0) {\\n\\tvalue = 0;\\n} else if (value > 100) {\\n\\tvalue = 100;\\n}\\nreturn value+50;\"}]}],\"timewindow\":{\"realtime\":{\"timewindowMs\":60000}},\"showTitle\":true,\"backgroundColor\":\"#fff\",\"color\":\"rgba(0, 0, 0, 0.87)\",\"padding\":\"8px\",\"settings\":{},\"title\":\"Custom Bars\"}"
  }
}